…
titanic_recipe <- recipe(data = train, formula = Survived ~ .) |> 
  update_role(PassengerId, new_role = "id") |>
  step_normalize(all_numeric_predictors()) |>
  step_other(title, threshold = 0.02) |>
  step_dummy(all_nominal_predictors()) 
  
titanic_prep <- prep(titanic_recipe)

bake(titanic_prep, new_data = NULL)

## # A tibble: 712 × 16
##    PassengerId     Fare FamilySize Survived Pclass_X2 Pclass_X3 Sex_male Age_dewasa
##          <dbl>    <dbl>      <dbl> <fct>        <dbl>     <dbl>    <dbl>      <dbl>
##  1           5 -0.510       -0.566 0                0         1        1          1
##  2           7  0.454       -0.566 0                0         0        1          1
##  3           8 -0.223        1.86  0                0         1        1          0
##  4          13 -0.510       -0.566 0                0         1        1          1
##  5          14  0.00120      3.07  0                0         1        1          1
##  6          15 -0.514       -0.566 0                0         1        0          0
##  7          17 -0.0461       2.46  0                0         1        1          0
##  8          25 -0.223        1.86  0                0         1        0          0
##  9          27 -0.528       -0.566 0                0         1        1          1
## 10          28  5.10         2.46  0                0         0        1          1
## # ℹ 702 more rows
## # ℹ 8 more variables: Age_lansia <dbl>, Age_remaja <dbl>, Embarked_Q <dbl>,
## #   Embarked_S <dbl>, title_Miss <dbl>, title_Mr <dbl>, title_Mrs <dbl>, title_other <dbl>
…
rf_tune <- tune_grid(titanic_workflow,
  resamples = folds,
  grid = 10, 
  control = control_grid(save_pred = TRUE, parallel_over = "everything")
)

## i Creating pre-processing data to finalize unknown parameter: mtry

# evaluate model
collect_metrics(rf_tune)

## # A tibble: 30 × 8
##     mtry min_n .metric     .estimator  mean     n std_err .config              
##    <int> <int> <chr>       <chr>      <dbl> <int>   <dbl> <chr>                
##  1    11     9 accuracy    binary     0.834    10 0.0163  Preprocessor1_Model01
##  2    11     9 brier_class binary     0.128    10 0.0103  Preprocessor1_Model01
##  3    11     9 roc_auc     binary     0.875    10 0.0165  Preprocessor1_Model01
##  4     9    25 accuracy    binary     0.834    10 0.0159  Preprocessor1_Model02
##  5     9    25 brier_class binary     0.126    10 0.00956 Preprocessor1_Model02
##  6     9    25 roc_auc     binary     0.872    10 0.0168  Preprocessor1_Model02
##  7    13    31 accuracy    binary     0.833    10 0.0171  Preprocessor1_Model03
##  8    13    31 brier_class binary     0.128    10 0.00975 Preprocessor1_Model03
##  9    13    31 roc_auc     binary     0.871    10 0.0161  Preprocessor1_Model03
## 10     6    13 accuracy    binary     0.844    10 0.0165  Preprocessor1_Model04
## # ℹ 20 more rows
…
collect_metrics(final_fit)

## # A tibble: 3 × 4
##   .metric     .estimator .estimate .config             
##   <chr>       <chr>          <dbl> <chr>               
## 1 accuracy    binary         0.849 Preprocessor1_Model1
## 2 roc_auc     binary         0.884 Preprocessor1_Model1
## 3 brier_class binary         0.116 Preprocessor1_Model1

final_model <- extract_workflow(final_fit)

pred <- final_model |> predict(titanic_test)
pred

## # A tibble: 418 × 1
##    .pred_class
##    <fct>      
##  1 0          
##  2 1          
##  3 0          
##  4 0          
##  5 1          
##  6 0          
##  7 1          
##  8 0          
##  9 1          
## 10 0          
## # ℹ 408 more rows
…
