…
</details>

## Evaluate the model

<details class="code-fold">
<summary>Code</summary>

``` r
collect_metrics(house_res) 
```

</details>

    # A tibble: 30 × 9
       wflow_id .config       preproc model .metric .estimator    mean     n std_err
       <chr>    <chr>         <chr>   <chr> <chr>   <chr>        <dbl> <int>   <dbl>
     1 pca_mlp  Preprocessor… recipe  mlp   rmse    standard   5.30e+4    10 6.80e+3
     2 pca_mlp  Preprocessor… recipe  mlp   rsq     standard   6.24e-1     9 8.42e-2
     3 pca_mlp  Preprocessor… recipe  mlp   rmse    standard   3.80e+4    10 5.30e+3
     4 pca_mlp  Preprocessor… recipe  mlp   rsq     standard   7.74e-1    10 5.34e-2
     5 pca_mlp  Preprocessor… recipe  mlp   rmse    standard   3.44e+4    10 2.91e+3
     6 pca_mlp  Preprocessor… recipe  mlp   rsq     standard   8.19e-1    10 2.74e-2
     7 pca_mlp  Preprocessor… recipe  mlp   rmse    standard   4.30e+4    10 6.56e+3
     8 pca_mlp  Preprocessor… recipe  mlp   rsq     standard   7.38e-1    10 6.23e-2
     9 pca_mlp  Preprocessor… recipe  mlp   rmse    standard   3.58e+4    10 4.20e+3
    10 pca_mlp  Preprocessor… recipe  mlp   rsq     standard   8.04e-1    10 4.03e-2
    # ℹ 20 more rows
…
<details class="code-fold">
<summary>Code</summary>

``` r
results <-  final_model |> 
  collect_predictions() |> 
  select(.pred, SalePrice)

results
```

</details>

    # A tibble: 365 × 2
         .pred SalePrice
         <dbl>     <dbl>
     1 229444.    223500
     2 264450.    279500
     3 150757.    157000
     4 357786.    325300
     5 128229.    139400
     6 263376.    230000
     7 136462.    134800
     8  82703.     68500
     9 172154.    179900
    10 145861.    144000
    # ℹ 355 more rows
…
## Predict test set and import the results

<details class="code-fold">
<summary>Code</summary>

``` r
pred <- extract_workflow(final_model) |> 
  predict(ames_test)

pred
```

</details>

    # A tibble: 1,459 × 1
         .pred
         <dbl>
     1 119647.
     2 157933.
     3 172850.
     4 197564.
     5 157744.
     6 167089.
     7 177043.
     8 157713.
     9 182613.
    10 123404.
    # ℹ 1,449 more rows
<details class="code-fold">
<summary>Code</summary>

``` r
submission <- ames_test |> 
  select(Id) |> 
  bind_cols(pred) |> 
  rename(SalePrice = .pred)

submission
```

</details>

    # A tibble: 1,459 × 2
          Id SalePrice
       <dbl>     <dbl>
     1  1461   119647.
     2  1462   157933.
     3  1463   172850.
     4  1464   197564.
     5  1465   157744.
     6  1466   167089.
     7  1467   177043.
     8  1468   157713.
     9  1469   182613.
    10  1470   123404.
    # ℹ 1,449 more rows
…
