…
``` r
final_wf <- extract_workflow(spaceship_final)

pred <- predict(final_wf, spaceship_test)

pred <-  pred |> 
  mutate(Transported = case_match(.pred_class, "TRUE" ~ "True",
            "FALSE" ~ "False")) |> 
  select(-.pred_class)
pred
```

</details>

    # A tibble: 4,277 × 1
       Transported
       <chr>      
     1 True       
     2 False      
     3 True       
     4 True       
     5 True       
     6 True       
     7 True       
     8 True       
     9 True       
    10 True       
    # ℹ 4,267 more rows
…
<details class="code-fold">
<summary>Code</summary>

``` r
submission <- spaceship_test |> 
  select(PassengerId) |> 
  bind_cols(pred) 

submission
```

</details>

    # A tibble: 4,277 × 2
       PassengerId Transported
       <chr>       <chr>      
     1 0013_01     True       
     2 0018_01     False      
     3 0019_01     True       
     4 0021_01     True       
     5 0023_01     True       
     6 0027_01     True       
     7 0029_01     True       
     8 0032_01     True       
     9 0032_02     True       
    10 0033_01     True       
    # ℹ 4,267 more rows
…
